…
    ## date created (size, mb): 2021-10-05 10:31:14 (0.912)

    ## file min/max dates: 1999-09-01 / 2021-09-30

lubridate package creates a month variable - rounds date down to the
first day of the month

## `group_by`

``` r
weather_df %>% 
  group_by(name)
```

    ## # A tibble: 1,095 × 7
    ## # Groups:   name [3]
    ##    name           id          date        prcp  tmax  tmin month     
    ##    <chr>          <chr>       <date>     <dbl> <dbl> <dbl> <date>    
    ##  1 CentralPark_NY USW00094728 2017-01-01     0   8.9   4.4 2017-01-01
    ##  2 CentralPark_NY USW00094728 2017-01-02    53   5     2.8 2017-01-01
    ##  3 CentralPark_NY USW00094728 2017-01-03   147   6.1   3.9 2017-01-01
    ##  4 CentralPark_NY USW00094728 2017-01-04     0  11.1   1.1 2017-01-01
    ##  5 CentralPark_NY USW00094728 2017-01-05     0   1.1  -2.7 2017-01-01
    ##  6 CentralPark_NY USW00094728 2017-01-06    13   0.6  -3.8 2017-01-01
    ##  7 CentralPark_NY USW00094728 2017-01-07    81  -3.2  -6.6 2017-01-01
    ##  8 CentralPark_NY USW00094728 2017-01-08     0  -3.8  -8.8 2017-01-01
    ##  9 CentralPark_NY USW00094728 2017-01-09     0  -4.9  -9.9 2017-01-01
    ## 10 CentralPark_NY USW00094728 2017-01-10     0   7.8  -6   2017-01-01
    ## # … with 1,085 more rows

``` r
weather_df %>% 
  group_by(name, month)
```

    ## # A tibble: 1,095 × 7
    ## # Groups:   name, month [36]
    ##    name           id          date        prcp  tmax  tmin month     
    ##    <chr>          <chr>       <date>     <dbl> <dbl> <dbl> <date>    
    ##  1 CentralPark_NY USW00094728 2017-01-01     0   8.9   4.4 2017-01-01
    ##  2 CentralPark_NY USW00094728 2017-01-02    53   5     2.8 2017-01-01
    ##  3 CentralPark_NY USW00094728 2017-01-03   147   6.1   3.9 2017-01-01
    ##  4 CentralPark_NY USW00094728 2017-01-04     0  11.1   1.1 2017-01-01
    ##  5 CentralPark_NY USW00094728 2017-01-05     0   1.1  -2.7 2017-01-01
    ##  6 CentralPark_NY USW00094728 2017-01-06    13   0.6  -3.8 2017-01-01
    ##  7 CentralPark_NY USW00094728 2017-01-07    81  -3.2  -6.6 2017-01-01
    ##  8 CentralPark_NY USW00094728 2017-01-08     0  -3.8  -8.8 2017-01-01
    ##  9 CentralPark_NY USW00094728 2017-01-09     0  -4.9  -9.9 2017-01-01
    ## 10 CentralPark_NY USW00094728 2017-01-10     0   7.8  -6   2017-01-01
    ## # … with 1,085 more rows
…
``` r
weather_df %>% 
  group_by(name, month) %>% 
  summarize(n_obs = n())
```

    ## `summarise()` has grouped output by 'name'. You can override using the `.groups` argument.

    ## # A tibble: 36 × 3
    ## # Groups:   name [3]
    ##    name           month      n_obs
    ##    <chr>          <date>     <int>
    ##  1 CentralPark_NY 2017-01-01    31
    ##  2 CentralPark_NY 2017-02-01    28
    ##  3 CentralPark_NY 2017-03-01    31
    ##  4 CentralPark_NY 2017-04-01    30
    ##  5 CentralPark_NY 2017-05-01    31
    ##  6 CentralPark_NY 2017-06-01    30
    ##  7 CentralPark_NY 2017-07-01    31
    ##  8 CentralPark_NY 2017-08-01    31
    ##  9 CentralPark_NY 2017-09-01    30
    ## 10 CentralPark_NY 2017-10-01    31
    ## # … with 26 more rows
…
Waikiki - NA for tmax (because of a missing observation in the original
df)

## grouped `mutate`

``` r
weather_df %>% 
  mutate(
    mean_tmax = mean(tmax, na.rm = TRUE)
  )
```

    ## # A tibble: 1,095 × 8
    ##    name           id          date        prcp  tmax  tmin month      mean_tmax
    ##    <chr>          <chr>       <date>     <dbl> <dbl> <dbl> <date>         <dbl>
    ##  1 CentralPark_NY USW00094728 2017-01-01     0   8.9   4.4 2017-01-01      18.1
    ##  2 CentralPark_NY USW00094728 2017-01-02    53   5     2.8 2017-01-01      18.1
    ##  3 CentralPark_NY USW00094728 2017-01-03   147   6.1   3.9 2017-01-01      18.1
    ##  4 CentralPark_NY USW00094728 2017-01-04     0  11.1   1.1 2017-01-01      18.1
    ##  5 CentralPark_NY USW00094728 2017-01-05     0   1.1  -2.7 2017-01-01      18.1
    ##  6 CentralPark_NY USW00094728 2017-01-06    13   0.6  -3.8 2017-01-01      18.1
    ##  7 CentralPark_NY USW00094728 2017-01-07    81  -3.2  -6.6 2017-01-01      18.1
    ##  8 CentralPark_NY USW00094728 2017-01-08     0  -3.8  -8.8 2017-01-01      18.1
    ##  9 CentralPark_NY USW00094728 2017-01-09     0  -4.9  -9.9 2017-01-01      18.1
    ## 10 CentralPark_NY USW00094728 2017-01-10     0   7.8  -6   2017-01-01      18.1
    ## # … with 1,085 more rows

Added a column that calculates the mean of tmax across all observations

``` r
weather_df %>% 
  group_by(name) %>% 
  mutate(
    mean_tmax = mean(tmax, na.rm = TRUE)
  )
```

    ## # A tibble: 1,095 × 8
    ## # Groups:   name [3]
    ##    name           id          date        prcp  tmax  tmin month      mean_tmax
    ##    <chr>          <chr>       <date>     <dbl> <dbl> <dbl> <date>         <dbl>
    ##  1 CentralPark_NY USW00094728 2017-01-01     0   8.9   4.4 2017-01-01      17.4
    ##  2 CentralPark_NY USW00094728 2017-01-02    53   5     2.8 2017-01-01      17.4
    ##  3 CentralPark_NY USW00094728 2017-01-03   147   6.1   3.9 2017-01-01      17.4
    ##  4 CentralPark_NY USW00094728 2017-01-04     0  11.1   1.1 2017-01-01      17.4
    ##  5 CentralPark_NY USW00094728 2017-01-05     0   1.1  -2.7 2017-01-01      17.4
    ##  6 CentralPark_NY USW00094728 2017-01-06    13   0.6  -3.8 2017-01-01      17.4
    ##  7 CentralPark_NY USW00094728 2017-01-07    81  -3.2  -6.6 2017-01-01      17.4
    ##  8 CentralPark_NY USW00094728 2017-01-08     0  -3.8  -8.8 2017-01-01      17.4
    ##  9 CentralPark_NY USW00094728 2017-01-09     0  -4.9  -9.9 2017-01-01      17.4
    ## 10 CentralPark_NY USW00094728 2017-01-10     0   7.8  -6   2017-01-01      17.4
    ## # … with 1,085 more rows

group –&gt; mutate, adds column to dataframe that is very group-specific

``` r
weather_df %>% 
  group_by(name) %>% 
  mutate(
    mean_tmax = mean(tmax, na.rm = TRUE), 
    centered_tmax = tmax - mean_tmax
  )
```

    ## # A tibble: 1,095 × 9
    ## # Groups:   name [3]
    ##    name           id    date        prcp  tmax  tmin month      mean_tmax centered_tmax
    ##    <chr>          <chr> <date>     <dbl> <dbl> <dbl> <date>         <dbl>         <dbl>
    ##  1 CentralPark_NY USW0… 2017-01-01     0   8.9   4.4 2017-01-01      17.4         -8.47
    ##  2 CentralPark_NY USW0… 2017-01-02    53   5     2.8 2017-01-01      17.4        -12.4 
    ##  3 CentralPark_NY USW0… 2017-01-03   147   6.1   3.9 2017-01-01      17.4        -11.3 
    ##  4 CentralPark_NY USW0… 2017-01-04     0  11.1   1.1 2017-01-01      17.4         -6.27
    ##  5 CentralPark_NY USW0… 2017-01-05     0   1.1  -2.7 2017-01-01      17.4        -16.3 
    ##  6 CentralPark_NY USW0… 2017-01-06    13   0.6  -3.8 2017-01-01      17.4        -16.8 
    ##  7 CentralPark_NY USW0… 2017-01-07    81  -3.2  -6.6 2017-01-01      17.4        -20.6 
    ##  8 CentralPark_NY USW0… 2017-01-08     0  -3.8  -8.8 2017-01-01      17.4        -21.2 
    ##  9 CentralPark_NY USW0… 2017-01-09     0  -4.9  -9.9 2017-01-01      17.4        -22.3 
    ## 10 CentralPark_NY USW0… 2017-01-10     0   7.8  -6   2017-01-01      17.4         -9.57
    ## # … with 1,085 more rows
…
    ## Warning: Removed 3 rows containing missing values (geom_point).

<img src="EDA_files/figure-gfm/unnamed-chunk-10-1.png" width="90%" />

``` r
weather_df %>% 
  group_by(name) %>% 
  mutate(
    tmax_rank = min_rank(tmax)
  )
```

    ## # A tibble: 1,095 × 8
    ## # Groups:   name [3]
    ##    name           id          date        prcp  tmax  tmin month      tmax_rank
    ##    <chr>          <chr>       <date>     <dbl> <dbl> <dbl> <date>         <int>
    ##  1 CentralPark_NY USW00094728 2017-01-01     0   8.9   4.4 2017-01-01        82
    ##  2 CentralPark_NY USW00094728 2017-01-02    53   5     2.8 2017-01-01        45
    ##  3 CentralPark_NY USW00094728 2017-01-03   147   6.1   3.9 2017-01-01        55
    ##  4 CentralPark_NY USW00094728 2017-01-04     0  11.1   1.1 2017-01-01       108
    ##  5 CentralPark_NY USW00094728 2017-01-05     0   1.1  -2.7 2017-01-01        21
    ##  6 CentralPark_NY USW00094728 2017-01-06    13   0.6  -3.8 2017-01-01        19
    ##  7 CentralPark_NY USW00094728 2017-01-07    81  -3.2  -6.6 2017-01-01         8
    ##  8 CentralPark_NY USW00094728 2017-01-08     0  -3.8  -8.8 2017-01-01         7
    ##  9 CentralPark_NY USW00094728 2017-01-09     0  -4.9  -9.9 2017-01-01         4
    ## 10 CentralPark_NY USW00094728 2017-01-10     0   7.8  -6   2017-01-01        69
    ## # … with 1,085 more rows
…
Windowed functions depend on other things within the df (vs. just
absolute value)

Lagged variables (lagged effect of some exposure down the road)

``` r
weather_df %>% 
  group_by(name) %>% 
  mutate(
    lagged_tmax = lag(tmax, n=1)
  )
```

    ## # A tibble: 1,095 × 8
    ## # Groups:   name [3]
    ##    name           id          date        prcp  tmax  tmin month      lagged_tmax
    ##    <chr>          <chr>       <date>     <dbl> <dbl> <dbl> <date>           <dbl>
    ##  1 CentralPark_NY USW00094728 2017-01-01     0   8.9   4.4 2017-01-01        NA  
    ##  2 CentralPark_NY USW00094728 2017-01-02    53   5     2.8 2017-01-01         8.9
    ##  3 CentralPark_NY USW00094728 2017-01-03   147   6.1   3.9 2017-01-01         5  
    ##  4 CentralPark_NY USW00094728 2017-01-04     0  11.1   1.1 2017-01-01         6.1
    ##  5 CentralPark_NY USW00094728 2017-01-05     0   1.1  -2.7 2017-01-01        11.1
    ##  6 CentralPark_NY USW00094728 2017-01-06    13   0.6  -3.8 2017-01-01         1.1
    ##  7 CentralPark_NY USW00094728 2017-01-07    81  -3.2  -6.6 2017-01-01         0.6
    ##  8 CentralPark_NY USW00094728 2017-01-08     0  -3.8  -8.8 2017-01-01        -3.2
    ##  9 CentralPark_NY USW00094728 2017-01-09     0  -4.9  -9.9 2017-01-01        -3.8
    ## 10 CentralPark_NY USW00094728 2017-01-10     0   7.8  -6   2017-01-01        -4.9
    ## # … with 1,085 more rows
…
